{
    "$schema": "http://schema.management.azure.com/schemas/2015-01-01/deploymentTemplate.json#",
    "contentVersion": "1.0.0.0",
    "parameters": {
        "loadBalancer": { "type": "object" },
        "vnet": { "type": "object" },
        "subnet": { "type": "object" },
        "probes": { "type": "array" },
        "lbRules": { "type": "array" }
    },
    "variables": {
        "vnetId": "[resourceId(parameters('vnet').groupName,'Microsoft.Network/virtualNetworks', parameters('vnet').name)]",
        "subnetId": "[concat(variables('vnetId'), '/subnets/', parameters('subnet').name)]",
        "lbId": "[resourceId('Microsoft.Network/loadBalancers', parameters('loadBalancer').name)]",
        "frontEndIPConfigID": "[concat(variables('lbId'),'/frontendIPConfigurations/',parameters('loadBalancer').frontend.name)]",
        "lbPoolID": "[concat(variables('lbId'), '/backendAddressPools/', parameters('loadBalancer').backend.name)]"
    },
    "resources": [
        {
            "apiVersion": "2017-10-01",
            "condition": "[equals(parameters('loadBalancer').enable, 'true')]",
            "name": "[parameters('loadBalancer').name]",
            "type": "Microsoft.Network/loadBalancers",
            "location": "[resourceGroup().location]",
            "sku": {
                "name": "[parameters('loadBalancer').sku]"
            },
            "dependsOn": [],
            "scale": null,
            "properties": {
                "frontendIPConfigurations": [
                    {
                        "name": "[parameters('loadBalancer').frontend.name]",
                        "properties": {
                            "privateIPAllocationMethod": "[parameters('loadBalancer').privateIPAllocationMethod]",
                            "subnet": {
                                "id": "[variables('subnetId')]"
                            }
                        }
                    }
                ],
                "backendAddressPools": [ { "name": "[parameters('loadBalancer').backend.name]" } ],
                "copy": [{
                    "name": "loadBalancingRules",
                    "count": "[length(parameters('lbRules'))]",
                    "input": {
                        "name": "[parameters('lbRules')[copyIndex('loadBalancingRules')].name]",
                        "properties": {
                            "frontendIPConfiguration": {
                                "id": "[variables('frontEndIPConfigID')]"
                            },
                            "frontendPort": "[parameters('lbRules')[copyIndex('loadBalancingRules')].frontendPort]",
                            "backendPort": "[parameters('lbRules')[copyIndex('loadBalancingRules')].backendPort]",
                            "enableFloatingIP": "[parameters('lbRules')[copyIndex('loadBalancingRules')].enableFloatingIP]",
                            "idleTimeoutInMinutes": "[parameters('lbRules')[copyIndex('loadBalancingRules')].idleTimeoutInMinutes]",
                            "protocol": "[parameters('lbRules')[copyIndex('loadBalancingRules')].protocol]",
                            "loadDistribution": "[parameters('lbRules')[copyIndex('loadBalancingRules')].loadDistribution]",
                            "disableOutboundSnat": "[parameters('lbRules')[copyIndex('loadBalancingRules')].disableOutboundSnat]",
                            "backendAddressPool": {
                                "id": "[variables('lbPoolID')]"
                            },
                            "probe": {
                                "id": "[concat(variables('lbId'),'/probes/',parameters('lbRules')[copyIndex('loadBalancingRules')].probeName)]"
                            }
                        }
                    }
                }],
                "probes": "[parameters('probes')]",
                "inboundNatRules": [],
                "outboundNatRules": [],
                "inboundNatPools": []
            }
        }
    ],
    "outputs": {
        "loadBalancer": {
            "type": "object",
            "value": "[reference(parameters('loadBalancer').name)]"
        },
        "resourceID": {
            "type": "string",
            "value": "[resourceId('Microsoft.Network/loadBalancers', parameters('loadBalancer').name)]"
        }
    }
}