{
    "$schema": "http://schema.management.azure.com/schemas/2015-01-01/deploymentTemplate.json#",
    "contentVersion": "1.0.0.0",
    "parameters": {
        "pip": { "type": "object" }
    },
    "variables": {},
    "resources": [
        {
            "apiVersion": "2017-08-01",
            "type": "Microsoft.Network/publicIPAddresses",
            "name": "[parameters('pip').name]",
            "location": "[resourceGroup().location]",
            "properties": {
                "publicIPAllocationMethod": "Dynamic"
            }
        }
    ],
    "outputs": {
        "pip": {
            "type": "object",
            "value": "[reference(parameters('pip').name)]"
        },
        "resourceID": {
            "type": "string",
            "value": "[resourceId('Microsoft.Network/publicIPAddresses', parameters('pip').name)]"
        } 
    }
}