{
  "name": "Not allowed resource types",
  "definitionId": "6c112d4e-5bc7-47ae-a041-ea2d9dccd749",
  "displayName": "Not allowed resource types VNET, KEY VAULT, ROUTE TABLE, PUBLIC IP, STORAGE",
  "description": "This policy enables you to specify the resource types that your organization cannot deploy.",
  "parameters": {
    "listOfResourceTypesNotAllowed": {
      "value": [
        "Microsoft.KeyVault/vaults",
        "Microsoft.Network/publicIPAddresses",
        "Microsoft.Network/routeTables",
        "Microsoft.Network/virtualNetworks",
        "Microsoft.Network/virtualNetworkGateways",
        "Microsoft.Storage/storageAccounts"
      ]
    }
  },
  "notScope": [
    "Microsoft.KeyVault/vaults",
    "Microsoft.Network/publicIPAddresses",
    "Microsoft.Network/routeTables",
    "Microsoft.Network/virtualNetworks",
    "Microsoft.Network/virtualNetworkGateways",
    "Microsoft.Storage/storageAccounts"
  ]
}