{
    "$schema": "https://schema.management.azure.com/schemas/2015-01-01/deploymentTemplate.json#",
    "contentVersion": "1.0.0.0",
    "parameters": {


        "vnet_group_name": {
            "type": "string",
            "defaultValue": "main-net"
        },
        "vnet_name": {
            "type": "string",
            "defaultValue": "main-vnet"
        },
        "subnet_name": {
            "type": "string",
            "defaultValue": "shared-services-subnet"
        },
        
        "location": { "type": "string", "defaultValue": "centralus" },
        "load_balancer_name": { "type": "string", "defaultValue": "" },
        "load_balancer_rules": { "type": "array", "defaultValue": [] },
        "load_balancer_probes": { "type": "array", "defaultValue": [] }
    },
    "variables": {
        "vnetId": "[resourceId(parameters('vnet_group_name'),'Microsoft.Network/virtualNetworks', parameters('vnet_name'))]",
        "subnetId": "[concat(variables('vnetId'), '/subnets/', parameters('subnet_name'))]",
      
            
            "lbrule_dns_tcp": {     
                "name": "dnsTCP",
                "protocol": "Tcp",
                "frontendPort": 53,
                "backendPort": 53,
                "idleTimeoutInMinutes": 15,
                "probe": "lbprobe_dns"
            },
            "lbrule_dns_udp": {   
                "name": "dnsUDP",
                "protocol": "UDP",
                "frontendPort": 53,
                "backendPort": 53,
                "idleTimeoutInMinutes": 15,
                "probe": "lbprobe_dns"
            },
            "lbrule_ntp_tcp": {   
                "name": "ntpTCP",
                "protocol": "Tcp",
                "frontendPort": 123,
                "backendPort": 123,
                "idleTimeoutInMinutes": 15,
                "probe": "lbprobe_ntp"
            },
            "lbrule_ntp_udp": {
                "name": "ntpUDP",
                "protocol": "UDP",
                "frontendPort": 123,
                "backendPort": 123,
                "idleTimeoutInMinutes": 15,
                "probe": "lbprobe_ntp"
            },
            "lbrule_http_tcp": {
                  "name": "httpTCP",
                  "protocol": "Tcp",
                  "frontendPort": 80,
                  "backendPort": 80,
                  "idleTimeoutInMinutes": 15,
                  "probe": "lbprobe_http"
            },
            "lbrule_http_udp": {
                  "name": "httpUDP",
                  "protocol": "Udp",
                  "frontendPort": 80,
                  "backendPort": 80,
                  "idleTimeoutInMinutes": 15,
                  "probe": "lbprobe_http"
            },
            "lbrule_https_tcp": {
                "name": "httpsTCP",
                "protocol": "Tcp",
                "frontendPort": 443,
                "backendPort": 443,
                "idleTimeoutInMinutes": 15,
                "probe": "lbprobe_https"
            },
            "lbrule_https_udp": {
                "name": "httpsUDP",
                "protocol": "Udp",
                "frontendPort": 443,
                "backendPort": 443,
                "idleTimeoutInMinutes": 15,
                "probe": "lbprobe_https"
            },
            "lbrule_rdp_tcp": {
                "name": "rdpTCP",
                "protocol": "Tcp",
                "frontendPort": 3389,
                "backendPort": 3389,
                "idleTimeoutInMinutes": 15,
                "probe": "lbprobe_rdp"
            },
            "lbrule_rdp_udp": {
                "name": "httpUDP",
                "protocol": "Udp",
                "frontendPort": 3389,
                "backendPort": 3389,
                "idleTimeoutInMinutes": 15,
                "probe": "lbprobe_rdp"
            },


            "lbprobe_http": {
                "name": "http",
                "port": "80",
                "intervalInSeconds": 15,
                "numberOfProbes": 1
            },
            "lbprobe_https": {
                "name": "https",
                "port": "443",
                "intervalInSeconds": 15,
                "numberOfProbes": 1
            },
            "lbprobe_ntp": {
                "name": "ntp",
                "port": "123",
                "intervalInSeconds": 15,
                "numberOfProbes": 1
            },
            "lbprobe_dns": {
                "name": "dns",
                "port": "53",
                "intervalInSeconds": 15,
                "numberOfProbes": 1
            },
            "lbprobe_rdp": {
                "name": "rdp",
                "port": "3389",
                "intervalInSeconds": 15,
                "numberOfProbes": 1
            }
    },
    "resources": [
        {
            "type": "Microsoft.Network/loadBalancers",
            "name": "[parameters('load_balancer_name')]",
            "apiVersion": "2018-07-01",
            "condition": "[greater(length(parameters('load_balancer_name')), 0)]",
            "location": "[parameters('location')]",
            "properties": {
                "frontendIPConfigurations": [
                  {
                    "name": "loadBalancerFrontEnd",
                    "properties": {
                      "subnet": {
                        "id": "[variables('subnetId')]"
                      }
                    }
                  }
                ],
                "backendAddressPools": [
                  {
                    "name": "loadBalancerBackEnd"
                  }
                ],
                "copy": [
                    {
                        "name": "loadBalancingRules",
                        "count": "[length(parameters('load_balancer_rules'))]",
                        "input": {
                            "name": "[variables(parameters('load_balancer_rules')[copyIndex('loadBalancingRules')]).name]",       
                            "properties": {
                                "frontendIPConfiguration": { "id": "[concat(resourceId('Microsoft.Network/loadBalancers', parameters('load_balancer_name')), '/frontendIpConfigurations/loadBalancerFrontEnd')]" },
                                "backendAddressPool": { "id": "[concat(resourceId('Microsoft.Network/loadBalancers', parameters('load_balancer_name')), '/backendAddressPools/loadBalancerBackEnd')]" },
                                "probe": { "id": "[concat(resourceId('Microsoft.Network/loadBalancers', parameters('load_balancer_name')), '/probes/', variables(variables(parameters('load_balancer_rules')[copyIndex('loadBalancingRules')]).probe).name )]" },
                                "protocol": "[variables(parameters('load_balancer_rules')[copyIndex('loadBalancingRules')]).protocol]",
                                "frontendPort": "[variables(parameters('load_balancer_rules')[copyIndex('loadBalancingRules')]).frontendPort]",
                                "backendPort": "[variables(parameters('load_balancer_rules')[copyIndex('loadBalancingRules')]).backendPort]",
                                "idleTimeoutInMinutes": "[variables(parameters('load_balancer_rules')[copyIndex('loadBalancingRules')]).idleTimeoutInMinutes]"
                            }
                        }
                    },
                    {
                        "name": "probes",
                        "count": "[length(parameters('load_balancer_probes'))]",
                        "input": {
                            "name": "[variables(parameters('load_balancer_probes')[copyIndex('probes')]).name]",
                            "properties": {
                                "protocol": "Tcp",
                                "port": "[variables(parameters('load_balancer_probes')[copyIndex('probes')]).port]",
                                "intervalInSeconds": "[variables(parameters('load_balancer_probes')[copyIndex('probes')]).intervalInSeconds]",
                                "numberOfProbes": "[variables(parameters('load_balancer_probes')[copyIndex('probes')]).numberOfProbes]"
                            }
                        }
                    }
                ]
            }
        }      
    ]
}