{
    "Tags": [{
            "Name": "Region",
            "Default": "eastus2"
        },
        {
            "Name": "InvestmentCode",
            "Default": "18066"
        },
        {
            "Name": "Environment",
            "Default": "PRE-PROD"
        },
        {
            "Name": "Platform",
            "Default": "eds"
        },
        {
            "Name": "ResourceType",
            "Default": null
        },
        {
            "Name": "Role",
            "Default": "unknown"
        },
        {
            "Name": "AppID",
            "Default": "Azure DEEP Application (PRE-PROD)"
        },
        {
            "Name": "ExpiryDate",
            "Default": "31-12-9999"
        }
    ]
}