{
    "Tags": [{
            "Name": "Region",
            "Default": "eastus2"
        },
        {
            "Name": "InvestmentCode",
            "Default": "IOTS-2018-0128-0023"
        },
        {
            "Name": "Environment",
            "Default": "PROD"
        },
        {
            "Name": "Platform",
            "Default": "pcs"
        },
        {
            "Name": "ResourceType",
            "Default": null
        },
        {
            "Name": "Role",
            "Default": "unknown"
        },
        {
            "Name": "AppID",
            "Default": "Azure Infrastructure (PROD)"
        },
        {
            "Name": "ExpiryDate",
            "Default": "31-12-9999"
        }
    ]
}