{
  "_version": 0.2,
  "artifactory": {
    "prefix": "https://xlcazuneurprdpcsdepaid.blob.core.windows.net",
    "sasToken": "sv=2017-11-09&ss=bfqt&srt=sco&sp=rwdlacup&se=2019-08-21T18:33:47Z&st=2018-08-21T10:33:47Z&spr=https&sig=G2iAgRjP5%2FyLNRwroTrL8I1c1mDN6ZIiG3omadvZe1I%3D"
  },
  "activedirectory": {
    "password": "SrvDeploy2018!@",
    "domain": "azu-xlc-pcsprd.net",
    "user": "svc-xlc-pcsprd-arm01",
    "ou": {
      "container": {
        "rhel": "XLC-Computers",
        "windows": "MemberServers"
      },
      "domain": "DC=AZU-XLC-PCSPRD,DC=NET"
    }
  },
  "ntp": {
    "servers": [
      "10.185.192.73",
      "10.64.10.60",
      "10.224.10.60"
    ]
  }
}