{
  "details": {
    "Author": {
      "Name": "David Evans",
      "Email": "david.evans@contractor.xlcatlin.com"
    },
    "Subscription": {
      "Name": "xlc-azu-neur-prd-pcs",
      "Type": "PCS"
    },
    "Date": "2018-10-18",
    "Version": "1.0.0"
  },
  "tokens": {
    "[RGNameWorkspace]": "xlc-azu-neur-prd-pcs-rg-workspace",
    "[RGNameSecurity]": "xlc-azu-neur-prd-pcs-rg-security",
    "[RGNameOperations]": "xlc-azu-neur-prd-pcs-rg-operations",
    "[RGNameMainNet]": "xlc-azu-neur-prd-pcs-rg-main-net",
    "[RGNameDomainServices]": "xlc-azu-neur-prd-pcs-rg-domain-services",
    "[RGNameBastion]": "xlc-azu-neur-prd-pcs-rg-bastion",
    "[RGNameAzLog]": "xlc-azu-neur-prd-pcs-rg-az-log",
    "[RGNameAutomationTools]": "xlc-azu-neur-prd-pcs-rg-automation-tools",

    "[NamevNet]": "xlc-azu-neur-prd-pcs-vnet",
    "[NameWorkspace]": "xlc-azu-neur-prd-pcs-wkspc",
    "[NameLocalNetworkGateway]": "xlc-azu-eudc-prd-lng-LHRVPN0004",
    "[NamePublicIP]": "xlc-azu-neur-prd-pcs-pip",

    "[NameConnection]": "xlc-azu-neur-prd-pcs-Conn-OnPremises1",
    "[NameVirtualNetworkGateway]": "xlc-azu-neur-prd-pcs-vng",
    "[NameRecoveryVault]": "xlc-azu-neur-prd-pcs-rsv",
    "[NameRecoveryVaultPolicyName]": "xlc-azu-neur-prd-pcs-dbup",
    "[NameKeyVault]": "xlc-azu-neur-prd-pcs-kv",
    "[NameStorageDiag1]": "xlcazuneurprdpcsdiag1",
    "[NameStorageDiag2]": "xlcazuneurprdpcsdiag2",
    "[NameRunbook]": "xlc-azu-neur-prd-pcs-rb-",
    "[NameRunbookJob]": "xlc-azu-neur-prd-pcs-job-",
    "[NameRunbookSchedule]": "xlc-azu-neur-prd-pcs-skd-",
    "[NameAutomation]": "xlc-azu-neur-prd-pcs-auto",
    "[NameEventHubNamespace]": "xlc-azu-neur-prd-pcs-ensp",
    "[NameEventHub]": "xlc-azu-neur-prd-pcs-ehub",

    "[SubscriptionRegion]": "NorthEurope",
    "[WorkspaceRegion]": "WestEurope",
    "[AutomationAccountRegion]": "NorthEurope",

    "[EnableScheduler]": true,
    "[EnablePIP]": false,

    "[ARTIFACT-URL]": "https://xlcazuneurprdpcsdepaid.blob.core.windows.net",
    "[ARTIFACT-TOKEN]": "sv=2017-11-09&ss=bfqt&srt=sco&sp=rwdlacup&se=2019-08-21T18:33:47Z&st=2018-08-21T10:33:47Z&spr=https&sig=G2iAgRjP5%2FyLNRwroTrL8I1c1mDN6ZIiG3omadvZe1I%3D",

    "[ADMIN-PASSWORD]": "C0ntr0170",
    "[ADMIN-USERNAME]": "xlsupport",

    "[TenantId]": "53b7cac7-14be-46d4-be43-f2ad9244d901",
    "[SubscriptionId]": "3ca2bf68-8090-4ba9-b009-e923f5be09dd",                

    "[ServicePrincipalTenantBackupId]": "cdeea665-39c3-4053-a0bf-05e02d8ad184",
    "[ServicePrincipalVSTSId]": "e7f3091f-d9e4-4848-9456-5f42a84e7979",
    "[ServicePrincipalChefId]": "39c6c2d1-8178-4eaa-9c3c-10f7489d75b1",

    "[VNetAddress]": "10.153.0.0/24",
    "[LNGGatewayAddress]": "193.128.237.10",
    "[VpnSharedKey]": "Xav13r786#",
    "[VpnSku]": "VpnGw3",

    "[GatewaySubnet]": "GatewaySubnet",

    "[RANDOM-JOB-NUMBER]": "( (Get-Random -Maximum 10000000).ToString() )"
  },
  "routetables": [
    "shared-services-subnet-route-table",
    "bastion-subnet-route-table"
  ],
  "subnets": [
    {
      "name": "GatewaySubnet",
      "addressPrefix": "10.153.0.0/26",
      "routetable": null
    },
    {
      "name": "shared-services-subnet",
      "addressPrefix": "10.153.0.64/27",
      "routetable": "shared-services-subnet-route-table"
    },
    {
      "name": "private-firewall-outbound-subnet",
      "addressPrefix": "10.153.0.96/28",
      "routetable": null
    },
    {
      "name": "private-firewall-inbound-subnet",
      "addressPrefix": "10.153.0.112/28",
      "routetable": null
    },
    {
      "name": "public-firewall-outbound-subnet",
      "addressPrefix": "10.153.0.128/28",
      "routetable": null
    },
    {
      "name": "public-firewall-inbound-subnet",
      "addressPrefix": "10.153.0.144/28",
      "routetable": null
    },
    {
      "name": "bastion-subnet",
      "addressPrefix": "10.153.0.160/29",
      "routetable": "bastion-subnet-route-table"
    }
  ],
  "runbooks": [
    {
      "name": "SharedServicesRouteTable",
      "description": "",
      "script": "createSharedServicesSubnetRouteTable.ps1"
    },
    {
      "name": "BastionSubnetRouteTable",
      "description": "",
      "script": "createBastionSubnetRouteTable.ps1"
    }
  ],
  "tags": [
    {
      "Name": "Region",
      "Default": "NorthEurope"
    },
    {
      "Name": "InvestmentCode",
      "Default": "unknown"
    },
    {
      "Name": "Environment",
      "Default": "PROD"
    },
    {
      "Name": "Platform",
      "Default": "pcs"
    },
    {
      "Name": "ResourceType",
      "Default": null
    },
    {
      "Name": "Role",
      "Default": "unknown"
    },
    {
      "Name": "AppID",
      "Default": "Azure Infrastructure (PROD)"
    },
    {
      "Name": "ExpiryDate",
      "Default": "31-12-9999"
    }
  ]
}