{
    "$schema": "https://schema.management.azure.com/schemas/2015-01-01/deploymentParameters.json#",
    "contentVersion": "1.0.0.0",
    "parameters": {
        "activityLogAlertName": {
            "value": "pcs-npd-servicehealthalerts"
        },
        "activityLogAlertDescription": {
            "value": "Service Alerts for XLC PCS Non-Production Subscription"
        },
        "activityLogImpactedRegions": {
            "value": ["East US","East US 2"]
        },
        "activityLogAlertEnabled": {
            "value": true
        },
        "actionGroupName": {
            "value": "pcs-npd-servicehealthalertactiongroup"
        },
        "actionGroupShortName": {
            "value": "PCS-NPD-SHA"
        },
        "actionGroupEmailAddress": {
            "value": "IO.XLC.CloudOps@accenture.com"
        }
    }
}