[
  {
    "subscriptionName": "Visual Studio Enterprise",
    "resourceGroupName": "at-routetable-test",
    "virtualNetworkName": "vnet01",
    "resourceLocations": ["UK West"],
    "applicableSubnets": ["custom"],
    "routeTableName" : "routes",
    "authAndIdentityIps": [
        "13.67.50.224/29",
        "13.71.201.64/26",
        "13.106.4.128/25",
        "13.75.48.16/29",
        "13.75.80.16/29",
        "13.106.56.0/25",
        "20.190.128.0/18",
        "23.100.16.168/29",
        "23.100.32.136/29",
        "23.100.64.24/29",
        "23.100.72.32/29",
        "23.100.80.64/29",
        "23.100.88.32/29",
        "23.100.101.112/28",
        "23.100.104.16/28",
        "23.100.112.64/29",
        "23.100.120.64/29",
        "23.101.5.104/29",
        "23.101.144.136/29",
        "23.101.165.168/29",
        "23.101.181.128/29",
        "23.101.210.24/29",
        "23.101.222.240/28",
        "23.101.224.16/29",
        "23.101.226.16/28",
        "40.112.64.16/28",
        "40.113.192.16/29",
        "40.114.120.16/29",
        "40.115.152.16/28",
        "40.127.67.24/29",
        "40.126.0.0/18",
        "52.172.144.16/28",
        "65.52.1.16/29",
        "65.52.193.136/29",
        "65.54.170.128/25",
        "70.37.154.128/25",
        "104.40.240.48/28",
        "104.41.13.120/29",
        "104.41.216.16/28",
        "104.42.72.16/29",
        "104.43.208.16/29",
        "104.43.240.16/29",
        "104.44.218.128/25",
        "104.44.254.128/25",
        "104.44.255.0/25",
        "104.45.0.16/28",
        "104.45.208.104/29",
        "104.46.112.8/29",
        "104.46.224.64/28",
        "104.209.144.16/29",
        "104.210.48.8/29",
        "104.210.83.160/29",
        "104.210.208.16/29",
        "104.211.16.16/29",
        "104.211.48.16/29",
        "104.211.88.16/28",
        "104.211.216.32/27",
        "104.215.96.24/29",
        "104.215.144.64/29",
        "104.215.184.16/29",
        "132.245.165.0/25",
        "134.170.67.0/25",
        "134.170.116.0/25",
        "134.170.165.0/25",
        "134.170.172.128/25",
        "157.55.45.128/25",
        "157.55.59.128/25",
        "157.55.130.0/25",
        "157.55.145.0/25",
        "157.55.155.0/25",
        "157.55.227.192/26",
        "157.56.53.128/25",
        "157.56.55.0/25",
        "157.56.58.0/25",
        "157.56.151.0/25",
        "191.232.2.128/25",
        "191.237.248.32/29",
        "191.237.252.192/28"
    ],
    "RHELYumServers": [
        "13.91.47.76/32",
        "40.85.190.91/32",
        "52.187.75.218/32",
        "52.174.163.213/32",
        "52.237.203.19/32"
    ],    
    "customRoutes": [
      {
      "Name": "DefaultRoute",
      "AddressPrefix": "0.0.0.0/0",
      "NextHopType": "VirtualNetworkGateway"
      },
      {
        "Name": "AzureKMS",
        "AddressPrefix": "23.102.135.246/32",
        "NextHopType": "Internet"
      },
      {
        "Name": "digi-crl-ip",
        "AddressPrefix": "72.21.91.29/32",
        "NextHopType": "Internet"
      }      
    ]
  }
]