{
  "name": "Allowed Virtual Machine SKUs",
  "definitionId": "cccc23c7-8427-4f53-ad12-b6a63eb452b3",
  "displayName": "Allow only specific Virtual Machine SKU's",
  "description": "This policy enables you to specify a set of virtual machine SKUs that your organization can deploy.",
  "parameters": {
    "listOfAllowedSKUs": {
      "value": [
        "Standard_A7",
                      
        "Standard_D4s_v3",
        "Standard_D64s_v3",
        
        "Standard_DS14_v2",    

        "Standard_F2s_v2",
        "Standard_F4s_v2"                    
      ]
    }
  }
}