{
    "$schema": "http://schema.management.azure.com/schemas/2015-01-01/deploymentTemplate.json#",
    "contentVersion": "1.0.0.0",
    "parameters": { "global": { "type": "object" } },
    "variables": { },
    "resources": [
        {
            "apiVersion": "2015-01-01",
            "name": "[concat('createRouteTable',parameters('global').routetables[copyIndex()])]",
            "type": "Microsoft.Resources/deployments",
            "copy": {
                "name" : "createRouteTablesCopy",
                "count": "[length(parameters('global').routetables)]"
            },
            "properties": {
                "mode": "Incremental",
                "templateLink": {
                    "uri": "[parameters('global').modules.routetables]",
                    "contentVersion": "1.0.0.0"
                },
                "parameters": {
                    "name": {
                        "value": "[parameters('global').routetables[copyIndex()]]"
                    },
                    "routes": {
                        "value": [
                            "[parameters('global').udrRules.toInternet]"
                        ]
                    }
                }
            }
        },
        {
            "apiVersion": "2015-01-01",
            "name": "vnetCreation",
            "type": "Microsoft.Resources/deployments",
            "properties": {
                "mode": "Incremental",
                "templateLink": {
                    "uri": "[parameters('global').modules.virtualnetwork2]",
                    "contentVersion": "1.0.0.0"
                },
                "parameters": {
                    "vnet": { "value": "[parameters('global').vnet]" },
                    "dnsServers": { "value": "[parameters('global').vnet.dnsservers]" },
                    "subnets": { "value": "[parameters('global').subnets]" }
                    }
                },
                "dependsOn": [ "createRouteTablesCopy" ]
        }
    ],
    "outputs": {
        "vnetID":{
            "type": "string",
            "value": "[reference('vnetCreation').outputs.resourceID.value]"
        }
    }
}