{    
    "book": {
        "name": "[NameRunbook][RB-Name-RB]",
        "type": "PowerShell",
        "description": "[RB-Description-RB] Runbook",
        "log": {
            "progress": "false",
            "verbose": "false"
        },
        "uri": "[ARTIFACT-URL]/operations/[RB-Script-RB]?[ARTIFACT-TOKEN]&sr=b",
        "version": "1.0.0.0"
    },
    "job": {
        "name": "[NameRunbookJob][RB-Name-RB]-[RANDOM-JOB-NUMBER]",
        "parameters": {
            "subscriptionId": "[SubscriptionId]",
            "resourceGroupName": "[RGNameMainNet]",
            "resourceLocation": "[SubscriptionRegion]",
            "vNetName": "[NamevNet]",
            "azureRegion": "[SubscriptionRegion]"
        }
    },
    "scheduler": {
        "name": "[NameRunbookSchedule][RB-Name-RB]",
        "jobNumber": "[RANDOM-JOB-NUMBER]",
        "description": "[RB-Description-RB] Runbook Schedule",
        "startTime": "23:59:00",
        "expiryTime": "9999-12-31T15:59:00-08:00",
        "isEnabled": true,
        "interval": 1,
        "frequency": "day",
        "runOn": "",
        "parameters": {
            "subscriptionId": "[SubscriptionId]",
            "resourceGroupName": "[RGNameMainNet]",
            "resourceLocation": "[SubscriptionRegion]",
            "vNetName": "[NamevNet]",
            "azureRegion": "[SubscriptionRegion]"
        }
    }
}      

