{
	"diagStorage":{
		"name": "[NameStorageDiag1]",
		"groupName": "[RGNameOperations]",
		"kind": "Storage",
		"sku": {
			"name": "Standard_RAGRS",
			"tier": "Standard"
		},
		"properties": {
			"networkAcls": {
				"bypass": "AzureServices",
				"virtualNetworkRules": [],
				"ipRules": [],
				"defaultAction": "Allow"
			},
			"supportsHttpsTrafficOnly": false
		}
	},
	"diagStorage2": {
		"name": "[NameStorageDiag2]",
		"groupName": "[RGNameOperations]",
		"kind": "Storage",
		"sku": {
			"name": "Standard_RAGRS",
			"tier": "Standard"
		},
		"properties": {
			"networkAcls": {
				"bypass": "AzureServices",
				"virtualNetworkRules": [],
				"ipRules": [],
				"defaultAction": "Allow"
			},
			"supportsHttpsTrafficOnly": false
		}
	}
}
