{
	"keyVault": {
		"name": "[NameKeyVault]",
		"groupName": "[RGNameSecurity]",
		"skuName":"Standard",
		"family":"A",
		"enableVaultForDeployment":true,
		"enableVaultForDiskEncryption":true,
		"enabledForTemplateDeployment":true,
		"enableSoftDelete":true,
		"enablePurgeProtection":true,
		"accessPolicies": [
			{
				"tenantId": "[TenantId]",
				"objectId": "[ServicePrincipalTenantBackupId]",
				"permissions": {
					"keys": [
						"all"
					],
					"secrets": [
						"all"
					],
					"certificates": [
						"all"
					]
				}
			},
			{
				"tenantId": "[TenantId]",
				"objectId": "[ServicePrincipalVSTSId]",
				"permissions": {
					"keys": [
						"all"
					],
					"secrets": [
						"all"
					],
					"certificates": [
						"all"
					]
				}
			},
			{
				"tenantId": "[TenantId]",
				"objectId": "[ServicePrincipalChefId]",
				"permissions": {
					"keys": [
						"all"
					],
					"secrets": [
						"all"
					],
					"certificates": [
						"all"
					]
				}
			}				
		 ]
	}
}